catherine, 2018-09-11 16:09:24, Created page folksonomie/tag7, 
catherine, 2018-09-11 16:09:26, Updated page folksonomie/tag7, 
admin, 2018-09-13 12:26:24, Created page oeuvres/oeuvre-1, 
admin, 2018-09-13 12:27:37, Updated page oeuvres/oeuvre-1, artiste
admin, 2018-09-13 12:28:54, Created page oeuvres/oeuvre-2, 
admin, 2018-09-13 12:29:03, Updated page oeuvres/oeuvre-2, artiste
admin, 2018-09-13 12:33:41, Uploaded file oeuvres/oeuvre-1/1.jpg, 
admin, 2018-09-13 12:33:43, Updated page oeuvres/oeuvre-1, 
admin, 2018-09-13 12:33:52, Uploaded file oeuvres/oeuvre-2/1.jpg, 
admin, 2018-09-13 12:33:55, Updated page oeuvres/oeuvre-2, img
admin, 2018-09-13 12:38:14, Updated page oeuvres/oeuvre-1, 
admin, 2018-09-13 12:38:22, Updated page oeuvres/oeuvre-2, 
admin, 2018-09-13 12:38:59, Updated page oeuvres/oeuvre-2, 
admin, 2018-09-13 12:39:03, Updated page oeuvres, 
admin, 2018-09-13 12:39:14, Created page oeuvres/azff, 
admin, 2018-09-13 12:39:16, Updated page oeuvres/azff, artist
admin, 2018-09-13 12:39:33, Deleted page oeuvres/azff, 
admin, 2018-09-13 12:39:36, Deleted page oeuvres/oeuvre-1, 
admin, 2018-09-13 12:39:40, Deleted page oeuvres/oeuvre-2, 
admin, 2018-09-13 12:39:49, Created page oeuvres/oeuvre-1, 
admin, 2018-09-13 12:39:52, Updated page oeuvres/oeuvre-1, artist
admin, 2018-09-13 12:39:58, Created page oeuvres/oeuvre-2, 
admin, 2018-09-13 12:40:03, Updated page oeuvres/oeuvre-2, artist
admin, 2018-09-13 12:40:05, Updated page oeuvres, 
admin, 2018-09-13 12:58:08, Uploaded file oeuvres/oeuvre-1/capture-decran-2018-08-02-a-15.43.34.png, 
admin, 2018-09-13 12:58:15, Deleted file oeuvres/oeuvre-1/capture-decran-2018-08-02-a-15.43.34.png, 
admin, 2018-09-13 12:58:18, Uploaded file oeuvres/oeuvre-1/1.jpg, 
admin, 2018-09-13 12:58:22, Updated page oeuvres/oeuvre-1, 
admin, 2018-09-13 16:18:36, Uploaded file oeuvres/oeuvre-2/1.jpg, 
admin, 2018-09-13 16:18:41, Updated page oeuvres/oeuvre-2, 
admin, 2018-09-13 16:19:05, Created page oeuvres/oeuvre-3, 
admin, 2018-09-13 16:19:13, Uploaded file oeuvres/oeuvre-3/1.jpg, 
admin, 2018-09-13 16:19:15, Updated page oeuvres/oeuvre-3, artist
admin, 2018-09-13 16:19:24, Updated page oeuvres/oeuvre-3, slideshow
admin, 2018-09-13 16:20:13, Created page oeuvres/oeuvre-4, 
admin, 2018-09-13 16:20:21, Uploaded file oeuvres/oeuvre-4/1.jpg, 
admin, 2018-09-13 16:20:25, Updated page oeuvres/oeuvre-4, artist|slideshow
admin, 2018-09-13 16:20:27, Updated page oeuvres/oeuvre-4, 
admin, 2018-09-13 16:20:47, Created page oeuvres/oeuvre-5, 
admin, 2018-09-13 16:20:51, Updated page oeuvres/oeuvre-5, artist
admin, 2018-09-13 16:21:13, Uploaded file oeuvres/oeuvre-5/1.jpg, 
admin, 2018-09-13 16:21:18, Updated page oeuvres/oeuvre-5, slideshow
admin, 2018-09-13 16:27:43, Created page oeuvres/oeuvre-6, 
admin, 2018-09-13 16:27:51, Uploaded file oeuvres/oeuvre-6/1.jpg, 
admin, 2018-09-13 16:27:54, Updated page oeuvres/oeuvre-6, artist|slideshow
admin, 2018-09-13 16:28:29, Created page oeuvres/oeuvre-7, 
admin, 2018-09-13 16:28:38, Uploaded file oeuvres/oeuvre-7/1.jpg, 
admin, 2018-09-13 16:28:40, Updated page oeuvres/oeuvre-7, artist|slideshow
admin, 2018-09-13 16:32:26, Updated page oeuvres/oeuvre-1, date
admin, 2018-09-13 16:38:06, Updated page oeuvres/oeuvre-1, 
admin, 2018-09-13 16:38:50, Updated page oeuvres/oeuvre-1, date
admin, 2018-09-13 16:39:04, Created page oeuvres/oeuvre-8, 
admin, 2018-09-13 16:39:15, Uploaded file oeuvres/oeuvre-8/1.jpg, 
admin, 2018-09-13 16:39:18, Updated page oeuvres/oeuvre-8, artist|date|slideshow
admin, 2018-09-13 16:39:55, Updated page oeuvres/oeuvre-8, 
admin, 2018-09-13 16:40:13, Updated page oeuvres/oeuvre-8, ndate
admin, 2018-09-13 16:42:18, Updated page oeuvres/oeuvre-1, 
admin, 2018-09-13 16:45:59, Uploaded file oeuvres/oeuvre-3/treister_hft-the-gardener_botanical-print.jpg, 
admin, 2018-09-13 16:46:05, Updated page oeuvres/oeuvre-3, slideshow
admin, 2018-09-14 07:02:49, Updated page bibliographie, bibliographie
admin, 2018-09-14 07:06:00, Updated page bibliographie, bibliographie
admin, 2018-09-14 07:06:36, Updated page bibliographie, bibliographie
admin, 2018-09-14 07:06:57, Updated page bibliographie, 
admin, 2018-09-14 07:14:13, Updated page home, title
